// Jest Snapshot v1, https://goo.gl/fbAQLP

exports[`OrderbookList should render correctly 1`] = `
<DocumentFragment>
  <table
    class="table"
  >
    <thead
      class="tableHead "
    >
      <tr>
        <th
          class="headerCell"
        >
          total
        </th>
        <th
          class="headerCell"
        >
          size
        </th>
        <th
          class="headerCell"
        >
          price
        </th>
      </tr>
    </thead>
    <tbody>
      <tr>
        <td
          class="cell"
          style="color: white;"
        >
          25
        </td>
        <td
          class="cell"
          style="color: white;"
        >
          25
        </td>
        <td
          class="cell"
          style="color: rgb(4, 152, 106);"
        >
          300
        </td>
      </tr>
      <tr>
        <td
          class="cell"
          style="color: white;"
        >
          75
        </td>
        <td
          class="cell"
          style="color: white;"
        >
          50
        </td>
        <td
          class="cell"
          style="color: rgb(4, 152, 106);"
        >
          400
        </td>
      </tr>
    </tbody>
  </table>
</DocumentFragment>
`;
